01ATUTAL0A14960251    20110728000211600006000000004187349420110728PEAIndulhatunk.hu kft                 29 heti elszamolas                                                    
02000001000000000000169809117480072018085000000000141789148               B1237 KFT.                         PARK U. 22.                        B1237 KFT.                         29 heti elszamolas                                                    
02000002000000000000613891120500020012436400100003232221937               BRILLI-ANCE KFT.                   KULTERULET III.84.                 BRILLI-ANCE KFT.                   29 heti elszamolas                                                    
02000003000000000000479083116000060000000013463043141790908               CAR-TOUR HOTELS KFT                SZEPKILATO UTCA 38.                CAR-TOUR HOTELS KFT                29 heti elszamolas                                                    
02000004000000000000130820116000060000000022173953141790776               CAR-TOUR HUNGARY  KFT              FO UTCA 45.                        CAR-TOUR HUNGARY  KFT              29 heti elszamolas                                                    
02000005000000000000022925104000235051494950481012141792072               CARTOUR IDEGENFORGALMI SZOLGALTA   KATONA JOZSEF UTCA 15.             CARTOUR IDEGENFORGALMI SZOLGALTA   29 heti elszamolas                                                    
0200000600000000000061146711731001206558530000000021245                   DIACELL KFT.                       HIDEGVOLGYI UT 1.                  DIACELL KFT.                       29 heti elszamolas                                                    
0200000700000000000154381910300002105302724902001232044509                DOMUS REALITY S.R.O. KFV           FURDO UT 24.                       DOMUS REALITY S.R.O. KFV           29 heti elszamolas                                                    
02000008000000000001148960508001111114148600000000240156586               DRAU KFT.                          BARTOK BELA U. 1.                  DRAU KFT.                          29 heti elszamolas                                                    
02000009000000000001927712104035072142097700000000249668075               EGER-PARK HOTEL KFT.               SZALLODA U. 1-3.                   EGER-PARK HOTEL KFT.               29 heti elszamolas                                                    
02000010000000000005063044718001091109908000000000141786468               GUNARAS ZRT.                       KERNEN TER 1.                      GUNARAS ZRT.                       29 heti elszamolas                                                    
02000011000000000000540064120725070019933400100000148874338               GYOGYSZALLO ZRT.                   JARO J U. 1.                       GYOGYSZALLO ZRT.                   29 heti elszamolas                                                    
0200001200000000000024254250800104110854580000000021513                   HARASZ-FENYVESI KFT.               KOZEPMAKAR DULO 4.                 HARASZ-FENYVESI KFT.               29 heti elszamolas                                                    
02000013000000000000012199141005811407004901000008141791456               HOTEL ESZTERGOM                    PRIMAS SZIGET, HELISCHER J. U.     HOTEL ESZTERGOM                    29 heti elszamolas                                                    
02000014000000000001262684116000060000000036259865141789075               HOTEL GYULA KFT.                   PART U. 5.                         HOTEL GYULA KFT.                   29 heti elszamolas                                                    
02000015000000000000403906120860050013280400100003141792016               HOTEL SIRALY KFT                   HONVED UTCA 62-64.                 HOTEL SIRALY KFT                   29 heti elszamolas                                                    
02000016000000000000112906102010065016615000000000123767                  IROTTKO HOTEL KFT.                 FO TER 4.                          IROTTKO HOTEL KFT.                 29 heti elszamolas                                                    
0200001700000000000009003810400717495749525450100655961                   KAROSINVEST ZRT.                   ALMA U.1.                          KAROSINVEST ZRT.                   29 heti elszamolas                                                    
02000018000000000000226818576001321108821700000000141791676               KARPATEUROPA UTAZASI IRODA         SZEPVOLGYI UT 3/A                  KARPATEUROPA UTAZASI IRODA         29 heti elszamolas                                                    
02000019000000000000448585117490772001040300000000141791379               KEHIDA APARTHOTEL SZALLODAUZEMEL   DR. KOVACS LAJOS SETANY 2.         KEHIDA APARTHOTEL SZALLODAUZEMEL   29 heti elszamolas                                                    
02000020000000000000323898116070032445160007000007141784574               KESZPENZ INVEST KFT.               PART U.7/C.                        KESZPENZ INVEST KFT.               29 heti elszamolas                                                    
02000021000000000000724430181000020016445811010014141791873               MOLNARNE NAGY MAGDOLNA             BAROHAZI UTCA 14.                  MOLNARNE NAGY MAGDOLNA             29 heti elszamolas                                                    
02000022000000000000241859103000022600532800003285825671                  MTMH BT.                           SUMEGI U. 35.                      MTMH BT.                           29 heti elszamolas                                                    
02000023000000000000057247116000060000000030418778141791981               NEGY EVSZAK TERMALUDULO CSOKONYA   UDULOSOR 1.                        NEGY EVSZAK TERMALUDULO CSOKONYA   29 heti elszamolas                                                    
02000024000000000000625279104024275052656571891004107181778               PANORAMA MANAGMENT SZ.ES V. KFT.   KAROLYI MIHALY UT 1.               PANORAMA MANAGMENT SZ.ES V. KFT.   29 heti elszamolas                                                    
02000025000000000000085879107002822649240351100005141792266               PROLABORKER KERESKEDELMI, INGATL   POROSZLOI UT 19-21.                PROLABORKER KERESKEDELMI, INGATL   29 heti elszamolas                                                    
02000026000000000000322129109180010000005079830002141792081               RANGADO MAGYARORSZAG KFT.          SZENT ISTVAN UTCA 2.               RANGADO MAGYARORSZAG KFT.          29 heti elszamolas                                                    
02000027000000000001036570104035075050545754491002240156809               REALNET KFT.                       THERMAL KEMPING SOR 2.             REALNET KFT.                       29 heti elszamolas                                                    
02000028000000000000239486117940082053751300000000129677455               S.R.A APARTMANHAZ KFT.             HOLD U. 8-10/B                     S.R.A APARTMANHAZ KFT.             29 heti elszamolas                                                    
02000029000000000000060424240161830               SERVICE4YOU BT.                    BALOGH ADAM 29.                    SERVICE4YOU BT.                    29 heti elszamolas                                                    
02000030000000000000192103101041050633320001003001141788552               SERVICE4YOU OPERATION KFT.         HONVED U. 72.                      SERVICE4YOU OPERATION KFT.         29 heti elszamolas                                                    
02000031000000000000136559126903                  STARLIGHT SZALLODAUZEMELTETO KFT   GYOPAROSI UT 3.                    STARLIGHT SZALLODAUZEMELTETO KFT   29 heti elszamolas                                                    
02000032000000000000078526117160082017476900000000141792268               STARLOCK BT. SZEKHELY: 1163 BP.    PROHASZKA O. U. 17.                STARLOCK BT. SZEKHELY: 1163 BP.    29 heti elszamolas                                                    
02000033000000000000029803104026232621268900000000135860252               SUPER INVEST KFT.                  JOKAI U. 9-11.                     SUPER INVEST KFT.                  29 heti elszamolas                                                    
0200003400000000000023395811600006000000001692420030824                   SZAKTUDAS KIADO HAZ ZRT.           DOMSODI UT 1.                      SZAKTUDAS KIADO HAZ ZRT.           29 heti elszamolas                                                    
020000350000000000001075021203000400150821001000067311451                 SZALAJKA MANAGMENT KFT.            EGRI UT 2.                         SZALAJKA MANAGMENT KFT.            29 heti elszamolas                                                    
02000036000000000000871183107007494505590651100005141791871               SZARSZO KFT.                       CSARDA U. 39-41.                   SZARSZO KFT.                       29 heti elszamolas                                                    
02000037000000000000026184117490392008653600000000141784357               TAKACS 2000 KFT.                   FELSOCSETENY KOZ 6.                TAKACS 2000 KFT.                   29 heti elszamolas                                                    
02000038000000000000405044117960002990229300000000119913906               VENDEG-VAR KFT.                    DEAK FERENC SETANY 8.              VENDEG-VAR KFT.                    29 heti elszamolas                                                    
02000039000000000002367407104001885052658156891005240163877               VICTUS ES TSA KFT.                 BUBANATVOLGY,ORTORONY U.49         VICTUS ES TSA KFT.                 29 heti elszamolas                                                    
0200004000000000000025738210700378481851055110000588079876                WALDEN HOTEL KFT                   FENY U.1.                          WALDEN HOTEL KFT                   29 heti elszamolas                                                    
02000041000000000000661149117460812002581600000000236352064               ZPH SZALLODAUZEMELTETO KFT                                            ZPH SZALLODAUZEMELTETO KFT         29 heti elszamolas                                                    
020000420000000000043850521160000600000000381685941                       INDULHATUNK.HU KFT.                SZOLO KOZ 3.                       INDULHATUNK.HU KFT.                29 heti elszamolas                                                    
030000420000000028520325
