01ATUTAL0A14960251    20111208000211600006000000004187349420111208PEAIndulhatunk.hu kft                 48 heti elszamolas                                                    
02000001000000000000027829117480072018085000000000141789148               B1237 KFT.                         PARK U. 22.                        B1237 KFT.                         48 heti elszamolas                                                    
02000002000000000000082604104024272422426800000000141784087               DDRF EU KÖZPONT KFT.  7633. PEC   HUNYADY UTCA 1.                    DDRF EU KÖZPONT KFT.  7633. PEC   48 heti elszamolas                                                    
0200000300000000000004286210300002105302724902001232044509                DOMUS REALITY S.R.O. KFV           FURDO UT 24.                       DOMUS REALITY S.R.O. KFV           48 heti elszamolas                                                    
02000004000000000000078575508001111114148600000000240156586               DRAU KFT.                          BARTOK BELA U. 1.                  DRAU KFT.                          48 heti elszamolas                                                    
02000005000000000000023084107000620409490451100005141793794               EDF DEMASZ ZRT.                    DOZSA GYORGY U. 4-6.               EDF DEMASZ ZRT.                    48 heti elszamolas                                                    
02000006000000000000710937104035072142097700000000249668075               EGER-PARK HOTEL KFT.               SZALLODA U. 1-3.                   EGER-PARK HOTEL KFT.               48 heti elszamolas                                                    
02000007000000000000042518104021805052658371761006141788774               EURO THERMAL 2000 KFT.             GYOGYFURDO TER 6.                  EURO THERMAL 2000 KFT.             48 heti elszamolas                                                    
02000008000000000000078412718001091109908000000000141786468               GUNARAS ZRT.                       KERNEN TER 1.                      GUNARAS ZRT.                       48 heti elszamolas                                                    
0200000900000000000007824850800104110854580000000021513                   HARASZ-FENYVESI KFT.               KOZEPMAKAR DULO 4.                 HARASZ-FENYVESI KFT.               48 heti elszamolas                                                    
02000010000000000000026036141005811407004901000008141791456               HOTEL ESZTERGOM KFT.               PRIMAS SZIGET, HELISCHER J. U.     HOTEL ESZTERGOM KFT.               48 heti elszamolas                                                    
02000011000000000000733264116000060000000036259865141789075               HOTEL GYULA KFT.                   PART U. 5.                         HOTEL GYULA KFT.                   48 heti elszamolas                                                    
02000012000000000000415106109180010000000427790009105547482               HOTEL SZILVAS KFT.                 PARK UTCA 6.                       HOTEL SZILVAS KFT.                 48 heti elszamolas                                                    
02000013000000000000071985117490772001040300000000141791379               KEHIDA APARTHOTEL KFT.             DR. KOVACS LAJOS SETANY 2.         KEHIDA APARTHOTEL KFT.             48 heti elszamolas                                                    
02000014000000000000064599116070032445160007000007141784574               KESZPENZ INVEST KFT.               PART U.7/C.                        KESZPENZ INVEST KFT.               48 heti elszamolas                                                    
02000015000000000000053972181000020016445811010014141791873               MOLNARNE NAGY MAGDOLNA             BAROHAZI UTCA 14.                  MOLNARNE NAGY MAGDOLNA             48 heti elszamolas                                                    
02000016000000000000031506750002461009637600000000141777093               NAPFENY HOTEL KAROS KFT.           TERMAL U. 10.                      NAPFENY HOTEL KAROS KFT.           48 heti elszamolas                                                    
02000017000000000001228518104035075050545754491002240156809               REALNET KFT.                       THERMAL KEMPING SOR 2.             REALNET KFT.                       48 heti elszamolas                                                    
02000018000000000000008106120010080130148000100000129677455               S.R.A APARTMANHAZ KFT.             HOLD U. 8-10                       S.R.A APARTMANHAZ KFT.             48 heti elszamolas                                                    
02000019000000000000462389508001421110038600000000122345                  SIKFURDO KFT.                      FURDO UTCA 5.                      SIKFURDO KFT.                      48 heti elszamolas                                                    
02000020000000000000040037107003610420550651100005248899861               SILVANUS HOTEL KFT.                FEKETE-HEGY 0134.                  SILVANUS HOTEL KFT.                48 heti elszamolas                                                    
020000210000000000000696671070018944305208511000057036348                 SILVER INVEST KFT.                 ZAKONYI F. SETANY 4.               SILVER INVEST KFT.                 48 heti elszamolas                                                    
0200002200000000000008263611600006000000001692420030824                   SZAKTUDAS KIADO HAZ ZRT.           DOMSODI UT 1.                      SZAKTUDAS KIADO HAZ ZRT.           48 heti elszamolas                                                    
020000230000000000000448271203000400150821001000067311451                 SZALAJKA MANAGMENT KFT.            EGRI UT 2.                         SZALAJKA MANAGMENT KFT.            48 heti elszamolas                                                    
02000024000000000000103916117490392008653600000000141784357               TAKACS 2000 KFT.                   FELSOCSETENY KOZ 6.                TAKACS 2000 KFT.                   48 heti elszamolas                                                    
02000025000000000000037613181000020003618611010016141792966               TAKACS ZOLTAN ATTILA WELLNES                                          TAKACS ZOLTAN ATTILA WELLNES       48 heti elszamolas                                                    
02000026000000000000134889101022377247470000000009141792801               TOMA-BAU ZRT.  1101. BP. ZACH U.   IFJUSAG U. 2.                      TOMA-BAU ZRT.  1101. BP. ZACH U.   48 heti elszamolas                                                    
02000027000000000000045834104001885052658156891005240163877               VICTUS ES TSA KFT.                 BUBANATVOLGY,ORTORONY U.49         VICTUS ES TSA KFT.                 48 heti elszamolas                                                    
02000028000000000000315915103000021050175949020010232227486               WELLWEST PLUSZ KFT.                GYOGYFURDO TER 8.                  WELLWEST PLUSZ KFT.                48 heti elszamolas                                                    
020000290000000000023755341160000600000000381685941                       INDULHATUNK.HU KFT.                SZOLO KOZ 3.                       INDULHATUNK.HU KFT.                48 heti elszamolas                                                    
030000290000000007511418
