01ATUTAL0A14960251    20110825000211600006000000004187349420110825PEAIndulhatunk.hu kft                 33 heti elszamolas                                                    
02000001000000000000026937117480072018085000000000141789148               B1237 KFT.                         PARK U. 22.                        B1237 KFT.                         33 heti elszamolas                                                    
02000002000000000000002990141792591               BERLINER PUB                       RADAY UTCA 5.                      BERLINER PUB                       33 heti elszamolas                                                    
02000003000000000000322104120500020012436400100003232221937               BRILLI-ANCE KFT.                   KULTERULET III.84.                 BRILLI-ANCE KFT.                   33 heti elszamolas                                                    
02000004000000000000402506116000060000000013463043141790908               CAR-TOUR HOTELS KFT                SZEPKILATO UTCA 38.                CAR-TOUR HOTELS KFT                33 heti elszamolas                                                    
02000005000000000000169711116000060000000022173953141790778               CAR-TOUR HUNGARY  KFT              GYOGYFURDO TER 6.                  CAR-TOUR HUNGARY  KFT              33 heti elszamolas                                                    
02000006000000000000011454116000060000000022173953141790776               CAR-TOUR HUNGARY  KFT              FO UTCA 45.                        CAR-TOUR HUNGARY  KFT              33 heti elszamolas                                                    
02000007000000000000028826116000060000000022173953141792451               CAR-TOUR HUNGARY  KFT              FO U. 117.                         CAR-TOUR HUNGARY  KFT              33 heti elszamolas                                                    
02000008000000000000098659117490772001040300000000141791379               CLUB KEHIDA TURISZTIKAI, VENDEGL   DR. KOVACS LAJOS SETANY 2.         CLUB KEHIDA TURISZTIKAI, VENDEGL   33 heti elszamolas                                                    
0200000900000000000027338011731001206558530000000021245                   DIACELL KFT.                       HIDEGVOLGYI UT 1.                  DIACELL KFT.                       33 heti elszamolas                                                    
0200001000000000000075372510300002105302724902001232044509                DOMUS REALITY S.R.O. KFV           FURDO UT 24.                       DOMUS REALITY S.R.O. KFV           33 heti elszamolas                                                    
02000011000000000000668714508001111114148600000000240156586               DRAU KFT.                          BARTOK BELA U. 1.                  DRAU KFT.                          33 heti elszamolas                                                    
02000012000000000000435313109180010000005761700006240161830               ECHO VITAL CLUB KFT.   1222. BP.   FELSOKOPASZHEGYI UT 35.            ECHO VITAL CLUB KFT.   1222. BP.   33 heti elszamolas                                                    
02000013000000000002947620104035072142097700000000249668075               EGER-PARK HOTEL KFT.               SZALLODA U. 1-3.                   EGER-PARK HOTEL KFT.               33 heti elszamolas                                                    
02000014000000000003497982718001091109908000000000141786468               GUNARAS ZRT.                       KERNEN TER 1.                      GUNARAS ZRT.                       33 heti elszamolas                                                    
02000015000000000000883480120725070019933400100000148874338               GYOGYSZALLO ZRT.                   JARO J U. 1.                       GYOGYSZALLO ZRT.                   33 heti elszamolas                                                    
0200001600000000000051779450800104110854580000000021513                   HARASZ-FENYVESI KFT.               KOZEPMAKAR DULO 4.                 HARASZ-FENYVESI KFT.               33 heti elszamolas                                                    
02000017000000000000319804141001274304724901000004240159084               HOTEL AQUARIUS KFT.                KOZTARSASAG U. 36-38               HOTEL AQUARIUS KFT.                33 heti elszamolas                                                    
02000018000000000000056977141005811407004901000008141791456               HOTEL ESZTERGOM                    PRIMAS SZIGET, HELISCHER J. U.     HOTEL ESZTERGOM                    33 heti elszamolas                                                    
02000019000000000001568700116000060000000036259865141789075               HOTEL GYULA KFT.                   PART U. 5.                         HOTEL GYULA KFT.                   33 heti elszamolas                                                    
02000020000000000000183113120860050013280400100003141792016               HOTEL SIRALY KFT                   HONVED UTCA 62-64.                 HOTEL SIRALY KFT                   33 heti elszamolas                                                    
0200002100000000000033152010400717495749525450100655961                   KAROSINVEST ZRT.                   ALMA U.1.                          KAROSINVEST ZRT.                   33 heti elszamolas                                                    
02000022000000000000139650576001321108821700000000141791676               KARPATEUROPA UTAZASI IRODA         SZEPVOLGYI UT 3/A                  KARPATEUROPA UTAZASI IRODA         33 heti elszamolas                                                    
02000023000000000000129322104047420001591200000006239411658               KATAVICS KFT.                      VARKERULET 29.                     KATAVICS KFT.                      33 heti elszamolas                                                    
02000024000000000000264366116070032445160007000007141784574               KESZPENZ INVEST KFT.               PART U.7/C.                        KESZPENZ INVEST KFT.               33 heti elszamolas                                                    
02000025000000000000195681103000022600532800003285825671                  MTMH BT.                           SUMEGI U. 35.                      MTMH BT.                           33 heti elszamolas                                                    
02000026000000000000952476117421112005979000000000827768                  OLIVIA KFT. 2461. TARNOK ROZLER    DR. BABOCSAY JOZSEF UT 56.         OLIVIA KFT. 2461. TARNOK ROZLER    33 heti elszamolas                                                    
02000027000000000000083414107002822649240351100005141792266               PROLABORKER KERESKEDELMI, INGATL   POROSZLOI UT 19-21.                PROLABORKER KERESKEDELMI, INGATL   33 heti elszamolas                                                    
02000028000000000000149610109180010000005079830002141792081               RANGADO MAGYARORSZAG KFT.          SZENT ISTVAN UTCA 2.               RANGADO MAGYARORSZAG KFT.          33 heti elszamolas                                                    
02000029000000000001093072104035075050545754491002240156809               REALNET KFT.                       THERMAL KEMPING SOR 2.             REALNET KFT.                       33 heti elszamolas                                                    
02000030000000000000411332117940082053751300000000129677455               S.R.A APARTMANHAZ KFT.             HOLD U. 8-10/B                     S.R.A APARTMANHAZ KFT.             33 heti elszamolas                                                    
02000031000000000000090636104010555052657855861001825564                  SERVICE 4 YOU HEVIZ KFT.           RAKOCZI UT 1-3.                    SERVICE 4 YOU HEVIZ KFT.           33 heti elszamolas                                                    
02000032000000000000289477101041050633320001003001141788552               SERVICE4YOU OPERATION KFT.         HONVED U. 72.                      SERVICE4YOU OPERATION KFT.         33 heti elszamolas                                                    
02000033000000000000173731________________________126903                  STARLIGHT SZALLODAUZEMELTETO KFT   GYOPAROSI UT 3.                    STARLIGHT SZALLODAUZEMELTETO KFT   33 heti elszamolas                                                    
02000034000000000000208552117160082017476900000000141792268               STARLOCK BT. SZEKHELY: 1163 BP.    PERES UTCA 18.                     STARLOCK BT. SZEKHELY: 1163 BP.    33 heti elszamolas                                                    
0200003500000000000007098611600006000000001692420030824                   SZAKTUDAS KIADO HAZ ZRT.           DOMSODI UT 1.                      SZAKTUDAS KIADO HAZ ZRT.           33 heti elszamolas                                                    
02000036000000000000329580107007494505590651100005141791871               SZARSZO KFT.                       CSARDA U. 39-41.                   SZARSZO KFT.                       33 heti elszamolas                                                    
02000037000000000000329531104003538675558683661004141792803               SZILAK GABRIELLA                   JOKAI MOR UTCA 5.                  SZILAK GABRIELLA                   33 heti elszamolas                                                    
02000038000000000000795612107011112697020251100005105548128               TEMESVARI KFT.                     RAKOCZI U 1.                       TEMESVARI KFT.                     33 heti elszamolas                                                    
02000039000000000000042559101022377247470000000009141792801               TOMA-BAU ZRT.  1101. BP. ZACH U.   IFJUSAG U. 2.                      TOMA-BAU ZRT.  1101. BP. ZACH U.   33 heti elszamolas                                                    
02000040000000000000198563117960002990229300000000119913906               VENDEG-VAR KFT.                    DEAK FERENC SETANY 8.              VENDEG-VAR KFT.                    33 heti elszamolas                                                    
02000041000000000003640760104001885052658156891005240163877               VICTUS ES TSA KFT.                 BUBANATVOLGY,ORTORONY U.49         VICTUS ES TSA KFT.                 33 heti elszamolas                                                    
02000042000000000000573665117460812002581600000000236352064               ZPH SZALLODAUZEMELTETO KFT                                            ZPH SZALLODAUZEMELTETO KFT         33 heti elszamolas                                                    
020000430000000000041055441160000600000000381685941                       INDULHATUNK.HU KFT.                SZOLO KOZ 3.                       INDULHATUNK.HU KFT.                33 heti elszamolas                                                    
030000430000000027769428
