01ATUTAL0A14960251    20110721000211600006000000004187349420110721PEAIndulhatunk.hu kft                 28 heti elszamolas                                                    
02000001000000000000419298107007494505590651100005141791871               SZARSZO KFT.                       CSARDA U. 39-41.                   SZARSZO KFT.                       28 heti elszamolas                                                    
020000020000000000037269061160000600000000381685941                       INDULHATUNK.HU KFT.                SZOLO KOZ 3.                       INDULHATUNK.HU KFT.                28 heti elszamolas                                                    
030000020000000004146204
