01ATUTAL0A14960251    20110908000211600006000000004187349420110908PEAIndulhatunk.hu kft                 35 heti elszamolas                                                    
02000001000000000000184694141792966               ATTILA WELLNESS HEVIZ                                                 ATTILA WELLNESS HEVIZ              35 heti elszamolas                                                    
02000002000000000000584907117480072018085000000000141789148               B1237 KFT.                         PARK U. 22.                        B1237 KFT.                         35 heti elszamolas                                                    
02000003000000000000051327120500020012436400100003232221937               BRILLI-ANCE KFT.                   KULTERULET III.84.                 BRILLI-ANCE KFT.                   35 heti elszamolas                                                    
02000004000000000000080721116000060000000013463043141790908               CAR-TOUR HOTELS KFT                SZEPKILATO UTCA 38.                CAR-TOUR HOTELS KFT                35 heti elszamolas                                                    
02000005000000000000097218116000060000000022173953141792451               CAR-TOUR HUNGARY  KFT              FO U. 117.                         CAR-TOUR HUNGARY  KFT              35 heti elszamolas                                                    
02000006000000000000016350116000060000000022173953141790776               CAR-TOUR HUNGARY  KFT              FO UTCA 45.                        CAR-TOUR HUNGARY  KFT              35 heti elszamolas                                                    
02000007000000000000054226116000060000000022173953141790778               CAR-TOUR HUNGARY  KFT              GYOGYFURDO TER 6.                  CAR-TOUR HUNGARY  KFT              35 heti elszamolas                                                    
02000008000000000000200028104000235051494950481012141792870               CARTOUR IDEGENFORGALMI SZOLGALTA                                      CARTOUR IDEGENFORGALMI SZOLGALTA   35 heti elszamolas                                                    
02000009000000000000044172141792964               D1237 KFT.                                                            D1237 KFT.                         35 heti elszamolas                                                    
0200001000000000000008343911731001206558530000000021245                   DIACELL KFT.                       HIDEGVOLGYI UT 1.                  DIACELL KFT.                       35 heti elszamolas                                                    
0200001100000000000021280110300002105302724902001232044509                DOMUS REALITY S.R.O. KFV           FURDO UT 24.                       DOMUS REALITY S.R.O. KFV           35 heti elszamolas                                                    
02000012000000000000406346508001111114148600000000240156586               DRAU KFT.                          BARTOK BELA U. 1.                  DRAU KFT.                          35 heti elszamolas                                                    
02000013000000000000326337240161830               ECHO VITAL CLUB KFT.   1222. BP.   FELSOKOPASZHEGYI UT 35.            ECHO VITAL CLUB KFT.   1222. BP.   35 heti elszamolas                                                    
02000014000000000001637173104035072142097700000000249668075               EGER-PARK HOTEL KFT.               SZALLODA U. 1-3.                   EGER-PARK HOTEL KFT.               35 heti elszamolas                                                    
02000015000000000001302760718001091109908000000000141786468               GUNARAS ZRT.                       KERNEN TER 1.                      GUNARAS ZRT.                       35 heti elszamolas                                                    
02000016000000000000549127120725070019933400100000148874338               GYOGYSZALLO ZRT.                   JARO J U. 1.                       GYOGYSZALLO ZRT.                   35 heti elszamolas                                                    
0200001700000000000056609250800104110854580000000021513                   HARASZ-FENYVESI KFT.               KOZEPMAKAR DULO 4.                 HARASZ-FENYVESI KFT.               35 heti elszamolas                                                    
02000018000000000000215577141001274304724901000004240159084               HOTEL AQUARIUS KFT.                KOZTARSASAG U. 36-38               HOTEL AQUARIUS KFT.                35 heti elszamolas                                                    
02000019000000000000020379141005811407004901000008141791456               HOTEL ESZTERGOM                    PRIMAS SZIGET, HELISCHER J. U.     HOTEL ESZTERGOM                    35 heti elszamolas                                                    
02000020000000000001378480116000060000000036259865141789075               HOTEL GYULA KFT.                   PART U. 5.                         HOTEL GYULA KFT.                   35 heti elszamolas                                                    
02000021000000000000101361120860050013280400100003141792016               HOTEL SIRALY KFT                   HONVED UTCA 62-64.                 HOTEL SIRALY KFT                   35 heti elszamolas                                                    
0200002200000000000018417810400717495749525450100655961                   KAROSINVEST ZRT.                   ALMA U.1.                          KAROSINVEST ZRT.                   35 heti elszamolas                                                    
02000023000000000000030538576001321108821700000000141791676               KARPATEUROPA UTAZASI IRODA         SZEPVOLGYI UT 3/A                  KARPATEUROPA UTAZASI IRODA         35 heti elszamolas                                                    
02000024000000000000049109104047420001591200000006239411658               KATAVICS KFT.                      VARKERULET 29.                     KATAVICS KFT.                      35 heti elszamolas                                                    
02000025000000000000159509117490772001040300000000141791379               KEHIDA APARTHOTEL KFT.             DR. KOVACS LAJOS SETANY 2.         KEHIDA APARTHOTEL KFT.             35 heti elszamolas                                                    
02000026000000000000080491116070032445160007000007141784574               KESZPENZ INVEST KFT.               PART U.7/C.                        KESZPENZ INVEST KFT.               35 heti elszamolas                                                    
02000027000000000000186274181000020016445811010014141791873               MOLNARNE NAGY MAGDOLNA             BAROHAZI UTCA 14.                  MOLNARNE NAGY MAGDOLNA             35 heti elszamolas                                                    
02000028000000000000063371103000022600532800003285825671                  MTMH BT.                           SUMEGI U. 35.                      MTMH BT.                           35 heti elszamolas                                                    
02000029000000000000035976116000060000000030418778141791981               NEGY EVSZAK TERMALUDULO CSOKONYA   UDULOSOR 1.                        NEGY EVSZAK TERMALUDULO CSOKONYA   35 heti elszamolas                                                    
02000030000000000000454971117421112005979000000000827768                  OLIVIA KFT. 2461. TARNOK ROZLER    DR. BABOCSAY JOZSEF UT 56.         OLIVIA KFT. 2461. TARNOK ROZLER    35 heti elszamolas                                                    
02000031000000000000029442107002822649240351100005141792266               PROLABORKER KERESKEDELMI, INGATL   POROSZLOI UT 19-21.                PROLABORKER KERESKEDELMI, INGATL   35 heti elszamolas                                                    
02000032000000000000035968109180010000005079830002141792081               RANGADO MAGYARORSZAG KFT.          SZENT ISTVAN UTCA 2.               RANGADO MAGYARORSZAG KFT.          35 heti elszamolas                                                    
02000033000000000000310405104035075050545754491002240156809               REALNET KFT.                       THERMAL KEMPING SOR 2.             REALNET KFT.                       35 heti elszamolas                                                    
02000034000000000000429955117940082053751300000000129677455               S.R.A APARTMANHAZ KFT.             HOLD U. 8-10/B                     S.R.A APARTMANHAZ KFT.             35 heti elszamolas                                                    
02000035000000000000201142101041050633320001003001141788552               SERVICE4YOU OPERATION KFT.         HONVED U. 72.                      SERVICE4YOU OPERATION KFT.         35 heti elszamolas                                                    
02000036000000000000350376107001344477901085110000126903                  STARLIGHT SZALLODAUZEMELTETO KFT   GYOPAROSI UT 3.                    STARLIGHT SZALLODAUZEMELTETO KFT   35 heti elszamolas                                                    
02000037000000000000106315117160082017476900000000141792268               STARLOCK BT. SZEKHELY: 1163 BP.    PERES UTCA 18.                     STARLOCK BT. SZEKHELY: 1163 BP.    35 heti elszamolas                                                    
0200003800000000000004942811600006000000001692420030824                   SZAKTUDAS KIADO HAZ ZRT.           DOMSODI UT 1.                      SZAKTUDAS KIADO HAZ ZRT.           35 heti elszamolas                                                    
02000039000000000000089727107007494505590651100005141791871               SZARSZO KFT.                       CSARDA U. 39-41.                   SZARSZO KFT.                       35 heti elszamolas                                                    
02000040000000000000308669104003538675558683661004141792803               SZILAK GABRIELLA                   JOKAI MOR UTCA 5.                  SZILAK GABRIELLA                   35 heti elszamolas                                                    
02000041000000000000250185107011112697020251100005105548128               TEMESVARI KFT.                     RAKOCZI U 1.                       TEMESVARI KFT.                     35 heti elszamolas                                                    
02000042000000000000079312104026235051575777811007165216729               TULVAN ES TARSA KFT.               ESZPERANTO TER 2.                  TULVAN ES TARSA KFT.               35 heti elszamolas                                                    
02000043000000000000008179117960002990229300000000119913906               VENDEG-VAR KFT.                    DEAK FERENC SETANY 8.              VENDEG-VAR KFT.                    35 heti elszamolas                                                    
02000044000000000003116187104001885052658156891005240163877               VICTUS ES TSA KFT.                 BUBANATVOLGY,ORTORONY U.49         VICTUS ES TSA KFT.                 35 heti elszamolas                                                    
0200004500000000000001219910700378481851055110000588079876                WALDEN HOTEL KFT                   FENY U.1.                          WALDEN HOTEL KFT                   35 heti elszamolas                                                    
02000046000000000000401949176000660025681600200004141792170               WELLAMARIN KERESKEDELMI ES VENDE   EOTVOS U. 15/1 SZEKHELY HARCSA U   WELLAMARIN KERESKEDELMI ES VENDE   35 heti elszamolas                                                    
02000047000000000000414861117460812002581600000000236352064               ZPH SZALLODAUZEMELTETO KFT                                            ZPH SZALLODAUZEMELTETO KFT         35 heti elszamolas                                                    
020000480000000000027317041160000600000000381685941                       INDULHATUNK.HU KFT.                SZOLO KOZ 3.                       INDULHATUNK.HU KFT.                35 heti elszamolas                                                    
030000480000000018283935
