01ATUTAL0A14960251    20110929000211600006000000004187349420110929PEAIndulhatunk.hu kft                 38 heti elszamolas                                                    
02000001000000000000308423117480072018085000000000141789148               B1237 KFT.                         PARK U. 22.                        B1237 KFT.                         38 heti elszamolas                                                    
02000002000000000000070372117480072018085000000000141792964               B1237 KFT.                         ROMAI UT 88.                       B1237 KFT.                         38 heti elszamolas                                                    
02000003000000000000110490117490222003431900000000180773534               BALOGH CSEMEGE KFT                 FO UT 16.                          BALOGH CSEMEGE KFT                 38 heti elszamolas                                                    
02000004000000000000044049120500020012436400100003232221937               BRILLI-ANCE KFT.                   KULTERULET III.84.                 BRILLI-ANCE KFT.                   38 heti elszamolas                                                    
02000005000000000000009817116000060000000022173953141790778               CAR-TOUR HUNGARY  KFT              GYOGYFURDO TER 6.                  CAR-TOUR HUNGARY  KFT              38 heti elszamolas                                                    
02000006000000000000026871104000235051494950481012141792870               CARTOUR IDEGENFORGALMI SZOLGALTA                                      CARTOUR IDEGENFORGALMI SZOLGALTA   38 heti elszamolas                                                    
02000007000000000000330186103000024361011400003285247406463               DENTAL-PANNONIA GYOGYIDEGENFORGA   VARKERULET 75.                     DENTAL-PANNONIA GYOGYIDEGENFORGA   38 heti elszamolas                                                    
0200000800000000000007366310300002105302724902001232044509                DOMUS REALITY S.R.O. KFV           FURDO UT 24.                       DOMUS REALITY S.R.O. KFV           38 heti elszamolas                                                    
02000009000000000000658013508001111114148600000000240156586               DRAU KFT.                          BARTOK BELA U. 1.                  DRAU KFT.                          38 heti elszamolas                                                    
02000010000000000000877053104035072142097700000000249668075               EGER-PARK HOTEL KFT.               SZALLODA U. 1-3.                   EGER-PARK HOTEL KFT.               38 heti elszamolas                                                    
02000011000000000000487623141005361314544901000002137107903               EGRI KORONA BORHAZ KFT.            0183/5 HRSZ.                       EGRI KORONA BORHAZ KFT.            38 heti elszamolas                                                    
02000012000000000000923394718001091109908000000000141786468               GUNARAS ZRT.                       KERNEN TER 1.                      GUNARAS ZRT.                       38 heti elszamolas                                                    
02000013000000000000041331120725070019933400100000148874338               GYOGYSZALLO ZRT.                   JARO J U. 1.                       GYOGYSZALLO ZRT.                   38 heti elszamolas                                                    
0200001400000000000006117750800104110854580000000021513                   HARASZ-FENYVESI KFT.               KOZEPMAKAR DULO 4.                 HARASZ-FENYVESI KFT.               38 heti elszamolas                                                    
02000015000000000000698222107007494241780851100005143967                  HOTEL AZUR SZALLODAIPARI ZRT.      VITORLAS U.11.                     HOTEL AZUR SZALLODAIPARI ZRT.      38 heti elszamolas                                                    
02000016000000000000638469107002066647041451100005141793050               HOTEL GOLF KFT. SZEKHELY: 1137.B   GOLF U. 4.                         HOTEL GOLF KFT. SZEKHELY: 1137.B   38 heti elszamolas                                                    
02000017000000000001188760116000060000000036259865141789075               HOTEL GYULA KFT.                   PART U. 5.                         HOTEL GYULA KFT.                   38 heti elszamolas                                                    
02000018000000000000031268176000590047548400200004141791793               HTZ HOTEL SZOLGALTATO KFT.         HELIKON U. 22.                     HTZ HOTEL SZOLGALTATO KFT.         38 heti elszamolas                                                    
02000019000000000000187969745001141103362600000000141793451               INTER-THERMAL KFT.                 CSANY LASZLO U. 24.                INTER-THERMAL KFT.                 38 heti elszamolas                                                    
0200002000000000000009209310400717495749525450100655961                   KAROSINVEST ZRT.                   ALMA U.1.                          KAROSINVEST ZRT.                   38 heti elszamolas                                                    
02000021000000000000054676117490772001040300000000141791379               KEHIDA APARTHOTEL KFT.             DR. KOVACS LAJOS SETANY 2.         KEHIDA APARTHOTEL KFT.             38 heti elszamolas                                                    
02000022000000000000138655107004954507270551100005141790240               LOKRI KFT.                         UDULO SOR 1.                       LOKRI KFT.                         38 heti elszamolas                                                    
02000023000000000000099495181000020016445811010014141791873               MOLNARNE NAGY MAGDOLNA             BAROHAZI UTCA 14.                  MOLNARNE NAGY MAGDOLNA             38 heti elszamolas                                                    
02000024000000000000024317103000022600532800003285825671                  MTMH BT.                           SUMEGI U. 35.                      MTMH BT.                           38 heti elszamolas                                                    
02000025000000000000038408116000060000000030418778141791981               NEGY EVSZAK TERMALUDULO CSOKONYA   UDULOSOR 1.                        NEGY EVSZAK TERMALUDULO CSOKONYA   38 heti elszamolas                                                    
02000026000000000000098201117420012990223100000000827768                  OLIVIA KFT. 2461. TARNOK ROZLER    DR. BABOCSAY JOZSEF UT 56.         OLIVIA KFT. 2461. TARNOK ROZLER    38 heti elszamolas                                                    
02000027000000000000013092109180010000005079830002141792081               RANGADO MAGYARORSZAG KFT.          SZENT ISTVAN UTCA 2.               RANGADO MAGYARORSZAG KFT.          38 heti elszamolas                                                    
02000028000000000000032734104035075050545754491002240156809               REALNET KFT.                       THERMAL KEMPING SOR 2.             REALNET KFT.                       38 heti elszamolas                                                    
02000029000000000000215970117940082053751300000000129677455               S.R.A APARTMANHAZ KFT.             HOLD U. 8-10/B                     S.R.A APARTMANHAZ KFT.             38 heti elszamolas                                                    
02000030000000000000017980101041050633320001003001141788552               SERVICE4YOU OPERATION KFT.         HONVED U. 72.                      SERVICE4YOU OPERATION KFT.         38 heti elszamolas                                                    
02000031000000000000063781107001344779010851100005126903                  STARLIGHT SZALLODAUZEMELTETO KFT   GYOPAROSI UT 3.                    STARLIGHT SZALLODAUZEMELTETO KFT   38 heti elszamolas                                                    
0200003200000000000062451811600006000000001692420030824                   SZAKTUDAS KIADO HAZ ZRT.           DOMSODI UT 1.                      SZAKTUDAS KIADO HAZ ZRT.           38 heti elszamolas                                                    
020000330000000000004324231203000400150821001000067311451                 SZALAJKA MANAGMENT KFT.            EGRI UT 2.                         SZALAJKA MANAGMENT KFT.            38 heti elszamolas                                                    
02000034000000000000163554104003538675558683661004141792803               SZILAK GABRIELLA                   JOKAI MOR UTCA 5.                  SZILAK GABRIELLA                   38 heti elszamolas                                                    
02000035000000000000240475117490392008653600000000141784357               TAKACS 2000 KFT.                   FELSOCSETENY KOZ 6.                TAKACS 2000 KFT.                   38 heti elszamolas                                                    
02000036000000000000227948181000020003618611010016141792966               TAKACS ZOLTAN ATTILA WELLNES                                          TAKACS ZOLTAN ATTILA WELLNES       38 heti elszamolas                                                    
02000037000000000000020436107011112697020251100005105548128               TEMESVARI KFT.                     RAKOCZI U 1.                       TEMESVARI KFT.                     38 heti elszamolas                                                    
02000038000000000000075284101022377247470000000009141792801               TOMA-BAU ZRT.  1101. BP. ZACH U.   IFJUSAG U. 2.                      TOMA-BAU ZRT.  1101. BP. ZACH U.   38 heti elszamolas                                                    
02000039000000000000024522104026235051575777811007165216729               TULVAN ES TARSA KFT.               ESZPERANTO TER 2.                  TULVAN ES TARSA KFT.               38 heti elszamolas                                                    
02000040000000000002226713104001885052658156891005240163877               VICTUS ES TSA KFT.                 BUBANATVOLGY,ORTORONY U.49         VICTUS ES TSA KFT.                 38 heti elszamolas                                                    
02000041000000000000045686109180010000006832710001160877049               VIDING KFT.                        BEKE U 2.                          VIDING KFT.                        38 heti elszamolas                                                    
0200004200000000000003057210700378481851055110000588079876                WALDEN HOTEL KFT                   FENY U.1.                          WALDEN HOTEL KFT                   38 heti elszamolas                                                    
02000043000000000000458934176000660025681600200004141792170               WELLAMARIN KERESKEDELMI ES VENDE   EOTVOS U. 15/1 SZEKHELY HARCSA U   WELLAMARIN KERESKEDELMI ES VENDE   38 heti elszamolas                                                    
02000044000000000001030127103000021050050349020014232227486               WELLWEST PLUSZ KFT.                GYOGYFURDO TER 8.                  WELLWEST PLUSZ KFT.                38 heti elszamolas                                                    
02000045000000000000020461117460812002581600000000236352064               ZPH SZALLODAUZEMELTETO KFT                                            ZPH SZALLODAUZEMELTETO KFT         38 heti elszamolas                                                    
020000460000000000050448771160000600000000381685941                       INDULHATUNK.HU KFT.                SZOLO KOZ 3.                       INDULHATUNK.HU KFT.                38 heti elszamolas                                                    
030000460000000018323082
