01ATUTAL0A14960251    20111216000211600006000000004187349420111216PEAIndulhatunk.hu kft                 49 heti elszamolas                                                    
02000001000000000000096572732001271131463700000000193654                  AURORA HOTELS KFT.                 BAJCSI-ZSILINSZKY U. 14            AURORA HOTELS KFT.                 49 heti elszamolas                                                    
02000002000000000000061161104009755051505449571005825674                  BAU-ZALA KFT.                      VOROSMARTY U. 18-20.               BAU-ZALA KFT.                      49 heti elszamolas                                                    
02000003000000000000031088107001270479030151100005181747                  CSONKA FIVEREK KFT.                DEAK F. U. 3-5.                    CSONKA FIVEREK KFT.                49 heti elszamolas                                                    
02000004000000000000260076104024272422426800000000141784087               DDRF EU KÖZPONT KFT.  7633. PEC   HUNYADY UTCA 1.                    DDRF EU KÖZPONT KFT.  7633. PEC   49 heti elszamolas                                                    
02000005000000000000123558103000024361011400003285247406463               DENTAL-PANNONIA GYOGYIDEGENFORGA   VARKERULET 75.                     DENTAL-PANNONIA GYOGYIDEGENFORGA   49 heti elszamolas                                                    
0200000600000000000013034510300002105302724902001232044509                DOMUS REALITY S.R.O. KFV           FURDO UT 24.                       DOMUS REALITY S.R.O. KFV           49 heti elszamolas                                                    
02000007000000000000290550508001111114148600000000240156586               DRAU KFT.                          BARTOK BELA U. 1.                  DRAU KFT.                          49 heti elszamolas                                                    
02000008000000000000060992107000620409490451100005141793794               EDF DEMASZ ZRT.                    DOZSA GYORGY U. 4-6.               EDF DEMASZ ZRT.                    49 heti elszamolas                                                    
02000009000000000000032668104035072142097700000000141785149               EGER PARK HOTEL KFT.               NARAD UT 6.                        EGER PARK HOTEL KFT.               49 heti elszamolas                                                    
02000010000000000000816254104035072142097700000000249668075               EGER-PARK HOTEL KFT.               SZALLODA U. 1-3.                   EGER-PARK HOTEL KFT.               49 heti elszamolas                                                    
02000011000000000000016367141005361314544901000002137107903               EGRI KORONA BORHAZ KFT.            0183/5 HRSZ.                       EGRI KORONA BORHAZ KFT.            49 heti elszamolas                                                    
02000012000000000000124311104021805052658371761006141788774               EURO THERMAL 2000 KFT.             GYOGYFURDO TER 6.                  EURO THERMAL 2000 KFT.             49 heti elszamolas                                                    
02000013000000000000065173104050665050545353541005239411062               FEHERPLATAN SZALLODAI SZOLGALTAT   GYUMOLCS UTCA 18.                  FEHERPLATAN SZALLODAI SZOLGALTAT   49 heti elszamolas                                                    
02000014000000000000022090102010065020844700000000141783618               FRANYO KFT                         SIKLOSI UT 21.                     FRANYO KFT                         49 heti elszamolas                                                    
02000015000000000000022917718001091109908000000000141786468               GUNARAS ZRT.                       KERNEN TER 1.                      GUNARAS ZRT.                       49 heti elszamolas                                                    
02000016000000000000023736120725070019933400100000148874338               GYOGYSZALLO ZRT.                   JARO J U. 1.                       GYOGYSZALLO ZRT.                   49 heti elszamolas                                                    
0200001700000000000014504450800104110854580000000021513                   HARASZ-FENYVESI KFT.               KOZEPMAKAR DULO 4.                 HARASZ-FENYVESI KFT.               49 heti elszamolas                                                    
02000018000000000000065500141001274304724901000004240159084               HOTEL AQUARIUS KFT.                KOZTARSASAG U. 36-38               HOTEL AQUARIUS KFT.                49 heti elszamolas                                                    
02000019000000000000034379107007494241780851100005143967                  HOTEL AZUR SZALLODAIPARI ZRT.      VITORLAS U.11.                     HOTEL AZUR SZALLODAIPARI ZRT.      49 heti elszamolas                                                    
0200002000000000000002448111747082200024510000000018163045                HOTEL PIROSKA KFT                  KOSSUTH LAJOS U. 60.               HOTEL PIROSKA KFT                  49 heti elszamolas                                                    
02000021000000000000748338109180010000000427790009105547482               HOTEL SZILVAS KFT.                 PARK UTCA 6.                       HOTEL SZILVAS KFT.                 49 heti elszamolas                                                    
02000022000000000000068104745001141103362600000000141793451               INTER-THERMAL KFT.                 CSANY LASZLO U. 24.                INTER-THERMAL KFT.                 49 heti elszamolas                                                    
02000023000000000000035829117490772001040300000000141791379               KEHIDA APARTHOTEL KFT.             DR. KOVACS LAJOS SETANY 2.         KEHIDA APARTHOTEL KFT.             49 heti elszamolas                                                    
02000024000000000000045793116070032445160007000007141784574               KESZPENZ INVEST KFT.               PART U.7/C.                        KESZPENZ INVEST KFT.               49 heti elszamolas                                                    
02000025000000000000011454120836000056016300100008141791548               KOVACS ATTILA                      KOLCSEY FERENC UTCA 15.            KOVACS ATTILA                      49 heti elszamolas                                                    
02000026000000000000166788181000020016445811010014141791873               MOLNARNE NAGY MAGDOLNA             BAROHAZI UTCA 14.                  MOLNARNE NAGY MAGDOLNA             49 heti elszamolas                                                    
02000027000000000000075292750002461009637600000000141777093               NAPFENY HOTEL KAROS KFT.           TERMAL U. 10.                      NAPFENY HOTEL KAROS KFT.           49 heti elszamolas                                                    
02000028000000000000061898117420012990223100000000827768                  OLIVIA FONIX CLUB KFT. 2461.   T   DR. BABOCSAY JOZSEF UT 56.         OLIVIA FONIX CLUB KFT. 2461.   T   49 heti elszamolas                                                    
02000029000000000001025558104035075050545754491002240156809               REALNET KFT.                       THERMAL KEMPING SOR 2.             REALNET KFT.                       49 heti elszamolas                                                    
02000030000000000000032423120010080130148000100000129677455               S.R.A APARTMANHAZ KFT.             HOLD U. 8-10 (BEJARAT AZ ALKOTMA   S.R.A APARTMANHAZ KFT.             49 heti elszamolas                                                    
02000031000000000000657153508001421110038600000000122345                  SIKFURDO KFT.                      FURDO UTCA 5.                      SIKFURDO KFT.                      49 heti elszamolas                                                    
02000032000000000000320295107003610420550651100005248899861               SILVANUS HOTEL KFT.                FEKETE-HEGY 0134.                  SILVANUS HOTEL KFT.                49 heti elszamolas                                                    
020000330000000000000977591070018944305208511000057036348                 SILVER INVEST KFT.                 ZAKONYI F. SETANY 4.               SILVER INVEST KFT.                 49 heti elszamolas                                                    
0200003400000000000012762711600006000000001692420030824                   SZAKTUDAS KIADO HAZ ZRT.           DOMSODI UT 1.                      SZAKTUDAS KIADO HAZ ZRT.           49 heti elszamolas                                                    
020000350000000000000650911203000400150821001000067311451                 SZALAJKA MANAGMENT KFT.            EGRI UT 2.                         SZALAJKA MANAGMENT KFT.            49 heti elszamolas                                                    
02000036000000000000330914117490392008653600000000141784357               TAKACS 2000 KFT.                   FELSOCSETENY KOZ 6.                TAKACS 2000 KFT.                   49 heti elszamolas                                                    
02000037000000000000020452181000020003618611010016141792966               TAKACS ZOLTAN ATTILA WELLNES                                          TAKACS ZOLTAN ATTILA WELLNES       49 heti elszamolas                                                    
02000038000000000000006542107011112697020251100005105548128               TEMESVARI KFT.                     RAKOCZI U 1.                       TEMESVARI KFT.                     49 heti elszamolas                                                    
02000039000000000000440799101022377247470000000009141792801               TOMA-BAU ZRT.  1101. BP. ZACH U.   IFJUSAG U. 2.                      TOMA-BAU ZRT.  1101. BP. ZACH U.   49 heti elszamolas                                                    
02000040000000000000338807104001885052658156891005240163877               VICTUS ES TSA KFT.                 BUBANATVOLGY,ORTORONY U.49         VICTUS ES TSA KFT.                 49 heti elszamolas                                                    
02000041000000000000163685103000021050175949020010232227486               WELLWEST PLUSZ KFT.                GYOGYFURDO TER 8.                  WELLWEST PLUSZ KFT.                49 heti elszamolas                                                    
02000042000000000000020461117460812002581600000000236352064               ZPH SZALLODAUZEMELTETO KFT                                            ZPH SZALLODAUZEMELTETO KFT         49 heti elszamolas                                                    
020000430000000000043671701160000600000000381685941                       INDULHATUNK.HU KFT.                SZOLO KOZ 3.                       INDULHATUNK.HU KFT.                49 heti elszamolas                                                    
030000430000000011675494
