01ATUTAL0A14960251    20110905000211600006000000004187349420110905PEAIndulhatunk.hu kft                 35 heti elszamolas                                                    
0200000100000000000056609250800104110854580000000021513                   HARASZ-FENYVESI KFT.               KOZEPMAKAR DULO 4.                 HARASZ-FENYVESI KFT.               35 heti elszamolas                                                    
0200000200000000000-5942691160000600000000381685941                       INDULHATUNK.HU KFT.                SZOLO KOZ 3.                       INDULHATUNK.HU KFT.                35 heti elszamolas                                                    
030000020000000000-28177
