HTTP/1.1 200 OK
Date: Mon, 21 Jul 2014 21:49:19 GMT
Server: Apache
Strict-Transport-Security: max-age=31536000; includeSubDomains
Set-Cookie: sid=; path=/;secure; HttpOnly
Content-Type: text/html
Cache-Control: no-transform,no-cache,no-store,must-revalidate, max-age=86400
Pragma: no-cache
Expires: Tue, 22 Jul 2014 21:49:19 GMT
X-Frame-Options: SAMEORIGIN
Transfer-Encoding: chunked

<html>
<head>
<title>Erste NetBank</title>
<meta http-equiv="Content-Type" content="text/html; charset=utf-8" />
<meta http-equiv="Cache-Control" content="no-cache,no-store" />
<meta http-equiv="Pragma" content="no-cache" />
<meta http-equiv="Copyright" content="Cardinal Kft., 2012" />

<link rel="stylesheet" type="text/css" href="/eibpublic_vall/eiblogin.css?version=1404120556" title="eib" />
</head>

<body>


<table border="0" width="100%" cellspacing="0" cellpadding="0" align="center">
	<tr>
		<td>&nbsp;</td>
		<td width="780">

		<table width="100%" height="90" cellspacing="0" cellpadding="0" border="0" align="center" style="table-layout: fixed;">
			<tbody>
				<tr height="26">
					<td align="right" valign="middle">
					<div style="float: right;">
						
							<a id="lan_hun" class="lang" href="/eibpublic_vall/login.hu.html" name="lan_hun"> Magyar <img class="noborder" style="vertical-align: middle; padding: 5px;" src="/eibpublic_vall/pics/lang_hu.gif"> </a>
						
						
							<a id="lan_eng" class="lang" href="/eibpublic_vall/login.en.html" name="lan_eng"> English <img class="noborder" style="vertical-align: middle; padding: 5px;" src="/eibpublic_vall/pics/lang_en.gif"> </a>
						
						
							<a id="lan_ger" class="lang" href="/eibpublic_vall/login.de.html" name="lan_ger"> Deutsch <img class="noborder" style="vertical-align: middle; padding: 5px;" src="/eibpublic_vall/pics/lang_de.gif"> </a>
						
					<div class="clear"><eib:xyz/></div>
					</div>
					</td>
				</tr>
				<tr height="64" align="left">
					<td><img class="noborder" src="/eibpublic_vall/pics/netbank_logo2.gif?version=1404120556"></td>
				</tr>
			</tbody>
		</table>

		<table class="whitebox" width="100%" valign="top" cellspacing="0" cellpadding="0" border="0" align="center" style="table-layout: fixed; margin-top: 28px;">
			<tbody>
				<tr height="4px">
					<td width="4px" valign="top"><img style="vertical-align: top;" src="/eibpublic_vall/pics/whitebox_left_top.gif"></td>
					<td class="whitebox_top" width="100%"></td>
					<td width="4px" valign="top"><img style="vertical-align: top;" src="/eibpublic_vall/pics/whitebox_right_top.gif"></td>
				</tr>
				<tr>
					<td class="whitebox_data_left" width="4px"><img src="/eibpublic_vall/pics/empty.gif"></td>
					<td class="whitebox_data" valign="top">
					<div class="whitebox_data">
					<div class="title">Bejelentkezés Vállalati NetBankba<eib:xyz></eib:xyz></div>
					
					<div class="clear"><eib:xyz></eib:xyz></div>

						<table cellpadding="0" cellspacing="3" border="0" align="center">
							<tr>
								<td valign="middle">
									<img src="/eibpublic_vall/pics/error.gif" class="icon"/>
								</td>
								<td valign="middle">
									<div class="normallabel">Ön még nem jelentkezett be az Erste Vállalati NetBank rendszerbe, vagy legalább 10 percig nem használta azt, és emiatt az Ön biztonsága érdekében a bejelentkezése lejárt. Kérjük, jelentkezzen be újra!</div>
								</td>
							</tr>
						</table>

						<br/>
						<br/>
						<center>
							<span class="button" onclick="location='/cgi-bin/eib_vall/loginpage.hu.html'"> <nobr><img src="/eibpublic_vall/pics/okbutton_left.gif" class="button_left" /><input default="true" type="button" value="Bejelentkezés" name="B1" id="B1" class="okbutton_middle" style="width: 192px;" /><img src="/eibpublic_vall/pics/okbutton_right.gif" class="button_right" style="cursor: pointer" /></nobr> </span>
						</center>

					</div>

					</td>
					<td class="whitebox_data_right" width="4px"><img src="/eibpublic_vall/pics/empty.gif"></td>
				</tr>
				<tr>
					<td class="whitebox_bottom" width="100%" colspan="3"></td>
				</tr>
			</tbody>
		</table>


		<table border="0" width="500">
			<tr height="28">
				<td align="left"><a class="clientsel" style="margin-right: 3px;" href="http://www.cardinal.hu" target="_new">&copy; Cardinal Kft. 2012</a> <span class="client_separator">|</span> <a class="clientsel" style="margin-right: 3px;" href="http://www.erstebank.hu" target="_new">www.erstebank.hu</a> <span class="client_separator">|</span> <a class="clientsel" style="margin-right: 3px;" href="/eibpublic_vall/help/hu/ALL.hu.html" target="_new">Kézikönyv</a>
				<span class="client_separator">|</span> <a class="clientsel" style="margin-right: 3px;" href="http://erstebank.hu/extras/netbank_demo/netbank_demo.html" target="_new">Ismertető</a>
				<div class="clear">&nbsp;</div>
				</td>
			</tr>
		</table>







		</td>
		<td>&nbsp;</td>
	</tr>
</table>




</body>
</html>

