Array
(
    [time] => Wed, 28 Sep 2011 13:33:58 +0200
    [addr] => ******9-133-5-65.catv.broadband.hu
    [agent] => Adobe Flash Player 10
    [post] => Array
        (
            [Filename] => 184393_1647949759601_1262661285_31567019_3056709_n.jpg
            [Upload] => Submit Query
        )

    [files] => Array
        (
            [Filedata] => Array
                (
                    [name] => 184393_1647949759601_1262661285_31567019_3056709_n.jpg
                    [type] => application/octet-stream
                    [tmp_name] => /tmp/php9Awx2a
                    [error] => 0
                    [size] => 46635
                )

        )

)

---
Array
(
    [time] => Wed, 28 Sep 2011 13:34:45 +0200
    [addr] => ******9-133-5-65.catv.broadband.hu
    [agent] => Adobe Flash Player 10
    [post] => Array
        (
            [Filename] => 182482_200414716637524_100000069927077_811627_3420827_n.jpg
            [Upload] => Submit Query
        )

    [files] => Array
        (
            [Filedata] => Array
                (
                    [name] => 182482_200414716637524_100000069927077_811627_3420827_n.jpg
                    [type] => application/octet-stream
                    [tmp_name] => /tmp/phptnz1BA
                    [error] => 0
                    [size] => 39892
                )

        )

)

---
Array
(
    [time] => Wed, 28 Sep 2011 13:34:45 +0200
    [addr] => ******9-133-5-65.catv.broadband.hu
    [agent] => Adobe Flash Player 10
    [post] => Array
        (
            [Filename] => 184393_1647949759601_1262661285_31567019_3056709_n.jpg
            [Upload] => Submit Query
        )

    [files] => Array
        (
            [Filedata] => Array
                (
                    [name] => 184393_1647949759601_1262661285_31567019_3056709_n.jpg
                    [type] => application/octet-stream
                    [tmp_name] => /tmp/phpe6RJXg
                    [error] => 0
                    [size] => 46635
                )

        )

)

---
Array
(
    [time] => Wed, 28 Sep 2011 13:35:20 +0200
    [addr] => ******9-133-5-65.catv.broadband.hu
    [agent] => Adobe Flash Player 10
    [post] => Array
        (
            [Filename] => 184393_1647949759601_1262661285_31567019_3056709_n.jpg
            [Upload] => Submit Query
        )

    [files] => Array
        (
            [Filedata] => Array
                (
                    [name] => 184393_1647949759601_1262661285_31567019_3056709_n.jpg
                    [type] => application/octet-stream
                    [tmp_name] => /tmp/php0wdgAB
                    [error] => 0
                    [size] => 46635
                )

        )

)

---
Array
(
    [time] => Wed, 28 Sep 2011 13:35:20 +0200
    [addr] => ******9-133-5-65.catv.broadband.hu
    [agent] => Adobe Flash Player 10
    [post] => Array
        (
            [Filename] => 182482_200414716637524_100000069927077_811627_3420827_n.jpg
            [Upload] => Submit Query
        )

    [files] => Array
        (
            [Filedata] => Array
                (
                    [name] => 182482_200414716637524_100000069927077_811627_3420827_n.jpg
                    [type] => application/octet-stream
                    [tmp_name] => /tmp/php3YYN6H
                    [error] => 0
                    [size] => 39892
                )

        )

)

---
